,cluster,xs,ys,keywords
0,0,-12.26438321533467,-8.594507923408024,"['wallpaper adhesive preparation', 'vegetable drink', 'onychomycosis tinea', 'mildew resistanteffect failed', 'peanut shell']"
1,1,3.41202247582866,-9.763481191568905,"['raw materials', 'beta cyclodextrin', 'parts weight', 'preparation discloses', 'weight parts']"
2,2,1.6851499829179704,-11.456770343582086,"['essential oil', 'beta cyclodextrin', 'preparation application', 'inclusion compound', 'oil phase']"
3,3,-6.219408381626607,-4.26464966447427,"['essential oil', 'beta cyclodextrin', 'preparation discloses', 'skin care', 'raw materials']"
4,4,-9.134327032580066,-5.664418742149621,"['essential oils', 'essential oil', 'inclusion complexes', 'controlled release', 'antimicrobial activity']"
5,5,-5.835516196574109,18.680985565933693,"['tea beverage', 'raw materials', 'tea preparation', 'health care', 'beta cyclodextrin']"
6,6,8.081259024267496,0.511316698562215,"['beta cyclodextrin', 'wall material', 'mung bean', 'citric acid', 'comprises weight']"
7,7,11.951345755599723,8.602166751862567,"['rice fragrance fine', 'abdominal distension', 'oil cyclodextrin', 'material whey', 'mouthfeel also meets']"
8,8,-7.871043453829707,2.8215631810598443,"['essential oil', 'beta cyclodextrin', 'temperature deg', 'oil microcapsule', 'oil composition']"
9,9,-10.067234112607647,-4.839354880876143,"['essential oil', 'essential oils', 'anti inflammatory', 'inclusion complexes', 'inclusion complex']"
10,10,17.86965175185283,3.9294055841358584,"['rice flour', 'powder parts', 'essential oil', 'beta cyclodextrin', 'raw materials']"
11,11,13.370469065317138,-1.9977026090595944,"['feed additive', 'powder parts', 'raw materials', 'weight parts', 'beta cyclodextrin']"
12,12,-14.49548063122448,-7.414562240908479,"['cosmetic composition', 'skin care', 'extract parts', 'active ingredient', 'composition comprising']"
13,13,5.896028658785787,7.094118721779162,"['milk powder', 'fermented milk', 'raw materials', 'milk tea', 'fish oil']"
14,14,0.8871982191237094,8.63594662071439,"['solid beverage', 'parts weight', 'solid drink', 'beverage preparation', 'powder parts']"
15,15,-8.574123078332178,-3.0920722210791003,"['aromatic chinese herbal', 'block crushing blank', 'fiber composite health', 'promotion blood', 'postpartum women also']"
16,16,-6.444679660908519,-11.677857662463204,"['mosquito repellent', 'essential oil', 'mosquito repelling', 'anti mosquito', 'anti mite']"
17,17,-4.810504495768357,-13.977915939637082,"['essential oil', 'wall material', 'core material', 'spray drying', 'oil phase']"
18,18,5.660457983038829,13.087552731443973,"['honey powder', 'spray drying', 'solid beverage', 'beverage prepared', 'beta cyclodextrin']"
19,19,2.6119532315210994,2.588235669480153,"['fresh keeping', 'raw materials', 'fresh keeping agent', 'keeping agent', 'essential oil']"
20,20,-4.635911367466993,-4.842921994638868,"['fruits vegetables guaranteed', 'internal breakdown', 'calculation comparison ventilation', 'cold pressed cake', 'jojoba oil incense']"
21,21,4.862820528650641,-6.574370529978768,"['chewable tablet', 'tablet preparation', 'parts weight', 'raw materials', 'powder parts']"
22,22,6.592140618146399,-8.023181488019869,"['inclusion complexes', 'essential oils', 'inclusion complex', 'essential oil', 'beta cyclodextrin']"
23,23,-7.254614647337179,4.343568413886554,"['essential oil', 'raw materials', 'beta cyclodextrin', 'preparation discloses', 'fresh keeping']"
24,24,-13.349251325933562,-8.734098502961965,"['essential oil', 'essential oils', 'silk fibroin', 'treating agent', 'mosquito repellent']"
25,25,-8.709065057510049,10.943090359131418,"['tea powder', 'tea preparation', 'tea extract', 'tea beverage', 'instant tea']"
26,26,9.815108582945713,0.39157986185536403,"['red jujube', 'glutinous rice', 'tribute cake', 'rice flour', 'cake preparation']"
27,27,-3.0942656456108066,-7.541072917165852,"['beta cyclodextrin', 'inclusion compound', 'clathrate compound', 'water solubility', 'water soluble']"
28,28,2.787079347567574,-12.021278153858434,"['beta cyclodextrin', 'health care', 'preparation application', 'comprises components', 'belongs technical']"
29,29,24.183701082900185,-6.102603931172094,"['duck meat', 'vegetarian meat', 'raw materials', 'powder parts', 'health care']"
30,30,14.686660089370472,-2.253351808722334,"['meal replacement', 'food packaging', 'powder parts', 'parts weight', 'raw materials']"
31,31,2.1634360359899523,3.5720156141783326,"['raw materials', 'beta cyclodextrin', 'solid beverage', 'beverage preparation', 'water soluble']"
32,32,-4.50491130634685,-4.612940942512847,"['essential oil', 'beta cyclodextrin', 'water soluble', 'inclusion compound', 'discloses preparation']"
33,33,-3.6293034664644708,3.8823566800681815,"['chewing gum', 'raw materials', 'beta cyclodextrin', 'essential oil', 'auxiliary materials']"
34,34,1.8220097105826625,-2.0635337653071426,"['black garlic', 'garlic powder', 'beta cyclodextrin', 'raw materials', 'essential oil']"
35,35,-9.157526896239364,22.884896590722935,"['green tea', 'instant tea', 'instant green', 'instant green tea', 'tea powder']"
36,36,-1.078245843136606,10.062514593353932,"['fruit powder', 'fruit vegetable', 'fresh keeping', 'beta cyclodextrin', 'raw materials']"
37,37,2.9103362163206232,-0.45552733768450177,"['health care', 'prevention treatment', 'weight parts', 'powder parts', 'raw materials']"
38,38,-15.344889531936854,16.506308992812656,"['essential oil', 'scented tea', 'tea powder', 'flower tea', 'health care']"
39,39,-16.916609252196043,-4.275291717093606,"['oil eeo cyclodextrin', 'material continuously stably', 'food packaging mosquito', 'kinetics analysis avramis', 'finishing working eucalyptus']"
40,40,25.95722320481395,-7.3266004687446715,"['additive functional livestock', 'micro capsule', 'effect long', 'methionine common salt', 'rapeseed meal premix']"
41,41,-0.9466186686129661,-0.0010937622593461282,"['essential oil', 'fruits vegetables', 'preparation application', 'beta cyclodextrin', 'essential oils']"
42,42,0.6969644913901374,11.444274750945958,"['drunkenness relieving hangover', 'plantago asiatica total', 'chickens cattle sheep', 'medicines yeast collagen', 'disclosed composition preventing']"
43,43,-6.101398673976196,-4.028074831354878,"['essential oil', 'raw materials', 'water soluble', 'handmade soap', 'laundry detergent']"
44,44,-5.155477810248443,-4.473551592271752,"['traditional chinese', 'traditional chinese medicine', 'chinese medicine composition', 'medicine composition', 'health care']"
45,45,21.39290397620885,-1.0182034447095063,"['feed additive', 'chicken feed', 'duck meat', 'raw materials', 'beta cyclodextrin']"
46,46,-3.8561587561689565,13.623291254880053,"['blood sugar', 'raw materials', 'beta cyclodextrin', 'citric acid', 'blood glucose']"
47,47,-9.803135971885792,2.1120434763415488,"['essential oil', 'slow release', 'beta cyclodextrin', 'wall materials', 'long time']"
48,48,9.59641769011093,6.223297743147345,"['removed edible goat', 'paper preparation comprises', 'juicing jujube dates', 'fresh black rice', 'central nervous systems']"
49,49,1.746711057998545,-0.2333130717200928,"['chinese medicine', 'traditional chinese medicine', 'chinese herbal', 'beta cyclodextrin', 'premixed feed']"
50,50,-9.232858060061664,-9.36097999995828,"['essential oils', 'essential oil', 'inclusion complexes', 'beta cyclodextrin', 'fos protein']"
51,51,12.39126355342533,-1.0047456595603437,"['soybean milk', 'soybean protein', 'beta cyclodextrin', 'parts weight', 'soy sauce']"
52,52,4.527523350921101,5.026368328422633,"['solid beverage', 'raw materials', 'beverage preparation', 'beta cyclodextrin', 'beverage prepared']"
53,53,-8.992063638220934,-1.630657549217883,"['essential oil', 'fresh keeping', 'beta cyclodextrin', 'oil microcapsule', 'wall material']"
54,54,-6.275988806313678,-13.763533638511692,"['essential oil', 'finishing agent', 'parts weight', 'preparation discloses', 'preparation relates']"
55,55,-10.093174519172917,0.046050119924826785,"['fishy smell', 'smell removing', 'acne removing', 'fishy smell removing', 'body odor']"
56,56,-17.116591956435972,-5.50335491853825,"['inclusion complex', 'essential oils', 'inclusion complexes', 'hp cd', 'water solubility']"
57,57,-13.659293970297895,-4.095468963039586,"['essential oil', 'cigarette filter', 'burning cigarette', 'core material', 'microcapsule layer']"
58,58,-3.2279067704420625,-14.406774101420957,"['essential oil', 'composition comprising', 'water soluble', 'selected consisting', 'water solubility']"
59,59,-13.021081771603455,-5.398293271133596,"['oil microcapsule', 'oil water', 'essential oil microcapsule', 'belongs technical', 'oil microcapsules']"
60,60,-4.001611659639186,-13.418399960793908,"['properties footwear therapeutic', 'zipper arch', 'sides correspondence', 'long distance running', 'bacteria leather killed']"
61,61,-2.660958847530228,7.670988780198622,"['fresh ginger', 'essential oil', 'solid beverage', 'ginger essential', 'ginger essential oil']"
62,62,5.823654228915712,6.346431894549826,"['beta cyclodextrin', 'raw materials', 'microwave hot', 'hot air', 'microwave hot air']"
63,63,6.123079066756515,-7.590385672132552,"['earthworm powder tea', 'meat increases', 'provides breeding crayfish', 'bungeanum maxim', 'performing electroosmosis']"
64,64,13.50183579650666,-2.2530866634507665,"['beta cyclodextrin', 'raw materials', 'wheat seeds', 'temperature deg', 'wheat germ']"
65,65,28.322216861816322,-0.9855344981849891,"['beef proper tangerine', 'removing dissolving small', 'curing time kidney', 'hide gelatin parts', 'food processing preparation']"
66,66,-0.9291564179286718,13.703300358508129,"['beta cyclodextrin', 'antioxidant activity', 'spray drying', 'essential oil', 'fruit juice']"
67,67,5.724284708782454,10.50685183890485,"['candy preparation', 'raw materials', 'soft sweets', 'beta cyclodextrin', 'candy comprises']"
68,68,2.2720953854753327,4.328469754002132,"['essential oil', 'buccal tablets', 'sichuan pepper', 'oil parts', 'raw materials']"
69,69,-10.849487084452699,-8.786430021895882,"['facial mask', 'essential oil', 'beta cyclodextrin', 'mask preparation', 'preparation discloses']"
70,70,-16.82186214057289,4.494284115409288,"['preparation lavender', 'lavender oil', 'beta cyclodextrin', 'preparation lavender essential', 'essential oil microcapsule']"
71,71,2.302094560382373,12.935356163700847,"['royal jelly', 'jelly preparation', 'jelly prepared', 'malic acid', 'bitter taste']"
72,72,-7.82928221351248,-6.286184076904078,"['plant essential', 'volatile oil', 'plant essential oil', 'seed oil', 'beta cyclodextrin']"
73,73,12.457523323948942,-4.130924307446507,"['beta cyclodextrin', 'raw materials', 'microcapsule powder', 'belongs technical', 'wall material']"
74,74,17.310139709768478,-1.7006632499460592,"['sheep enterotoxaemia preparation', 'traditional chinese', 'finishing soft finishing', 'rapier loom total', 'parts nano diatomite']"
75,75,-5.182513247561209,-14.498302801734196,"['essential oil', 'health care', 'finishing agent', 'sleep promoting', 'improving sleep']"
76,76,11.576439553137545,3.198386467223758,"['sweet potato', 'beta cyclodextrin', 'purple sweet', 'raw materials', 'coffee beans']"
77,77,2.9408613793742333,-3.5873901670555077,"['freeze dried', 'freeze drying', 'dried powder', 'low temperature', 'freeze dried powder']"
78,78,-2.180576448524955,12.627736274220549,"['beta cyclodextrin', 'raw materials', 'shelf life', 'citric acid', 'powder parts']"
79,79,7.419561916927564,-9.051297023761501,"['fish oil', 'fishy smell', 'preparation discloses', 'fish meat', 'raw materials']"
80,80,1.0547071180022214,-9.922586737650471,"['essential oil', 'beta cyclodextrin', 'preparation application', 'raw materials', 'spray drying']"
81,81,12.266997285981446,-0.9769104010710279,"['powder parts', 'raw materials', 'beta cyclodextrin', 'weight parts', 'protein powder']"
82,82,4.8028365803700455,2.2350081236942185,"['beta cyclodextrin', 'discloses preparation', 'enzymatic hydrolysate', 'raw materials', 'food processing']"
83,83,-6.5137710220572345,-11.400058544744727,"['essential oil', 'present provides', 'preventing treating', 'active ingredient', 'discloses preparation']"
84,84,4.590676893001883,3.945271970478424,"['ice cream', 'essential oils', 'probiotic ice', 'probiotic ice cream', 'frozen dessert']"
85,85,-14.200079501779252,-10.746684106397394,"['essential oil', 'according present', 'raw materials', 'skin care', 'freeze dried']"
86,86,-6.1912430000819505,-4.605164359955381,"['essential oil', 'deodorant composition', 'raw materials', 'air purifier', 'air purifying']"
87,87,14.449473239087759,8.32435586411834,"['degreased wheat germ', 'soothing nerves promoting', 'peanuts parts cactuses', 'young prepared raw', 'bag packaging solid']"
88,88,1.9871404254985534,10.496558988627333,"['orange rice vinegar', 'grinding screening', 'nutrition obvious healthcare', 'bran parts potatoes', 'killed qi']"
89,89,-4.322444352213374,-12.742917415512665,"['health care', 'essential oil', 'also provided', 'inclusion complex', 'inclusion complexes']"
90,90,2.434664602871712,14.44785272528177,"['rice vinegar', 'kumquat rice', 'kumquat rice vinegar', 'black rice', 'raw materials']"
91,91,1.576324618264132,18.79170113043108,"['blueberry fruit', 'blueberry fruit powder', 'fruit powder', 'blueberry powder', 'chinese wolfberry']"
92,92,-7.251348647318608,5.457636205194069,"['chinese medicine', 'traditional chinese medicine', 'chinese herbal', 'herbal medicine', 'health care']"
93,93,-12.022643895352163,16.96253234276886,"['leaf tea', 'lotus leaf tea', 'lotus root', 'instant lotus', 'instant lotus leaf']"
94,94,-0.4540389594254693,3.6481579410278537,"['encapsulated flavor', 'compositions methods', 'foreign taste', 'selected drawing', 'drawing none']"
95,95,-1.8058165763048166,0.8447128186528183,"['pepper extract', 'spice salt', 'salt salt', 'extract liquid', 'spice extract']"
96,96,-4.742894516675193,-17.393197734207643,"['compositions methods', 'compositions comprising', 'also provided', 'pharmaceutical compositions', 'controlled release']"
97,97,17.94770986829455,0.652977387568317,"['raw materials', 'coarse cereal', 'cereal powder', 'weight parts', 'wheat flour']"
98,98,8.030663350139275,2.229425197168989,"['beta cyclodextrin', 'sugar glucose', 'amino acids', 'preparation discloses']"
99,99,11.895834848394085,4.685807059394791,"['raw materials', 'yogurt prepared', 'essential oil', 'yogurt preparation', 'cow feed']"
100,100,-2.377932906238767,-9.245347137899868,"['oral cavity', 'raw materials', 'water soluble', 'beta cyclodextrin', 'composition comprises']"
101,101,-6.987497390379618,-2.069221733500754,"['essential oil', 'cinnamon essential', 'cinnamon essential oil', 'wall material', 'beta cyclodextrin']"
102,102,-15.992877635059363,-17.938094083979728,"['essential oils', 'drug delivery', 'essential oil', 'cyclodextrins cds', 'inclusion complexes']"
103,103,10.01499511496085,-4.21577215571341,"['water soluble', 'composition containing', 'beta cyclodextrin', 'dietary fiber', 'raw materials']"
104,104,-11.005853083735964,-7.410068040396884,"['volatile oil', 'inclusion complex', 'inclusion complexes', 'gas chromatography', 'essential oils']"
105,105,20.459716180094752,-8.748125387020742,"['feed additive', 'essential oil', 'livestock poultry', 'feed additives', 'raw materials']"
106,106,-6.347843392004537,8.336820541076118,"['essential oil', 'rose essential', 'rose essential oil', 'raw materials', 'jasmine flower']"
107,107,-11.683988334354249,-6.73966829391962,"['traditional chinese', 'chinese medicine', 'traditional chinese medicine', 'raw materials', 'oil parts']"
108,108,-4.313885047484357,6.340121792303844,"['essential oil', 'beta cyclodextrin', 'preparation discloses', 'raw materials', 'discloses preparation']"
109,109,-12.372607350572842,1.5768260276707498,"['water solubility', 'composition comprises', 'selected drawing', 'water soluble', 'acid cyclodextrin']"
110,110,-5.382146873557236,8.90818227648933,"['essential oil', 'beta cyclodextrin', 'navel orange', 'orange peel', 'raw materials']"
111,111,9.399588999880836,-0.20233018729063829,"['beta cyclodextrin', 'preparation instant', 'relates preparation', 'edible salt', 'raw materials']"
112,112,-2.5713690151808217,-15.721361673608042,"['beta cyclodextrin', 'essential oil', 'wall material', 'inclusion compound', 'core material']"
113,113,-1.9192957304050053,14.250646421145145,"['walnut peptide', 'walnut oil', 'walnut powder', 'powder parts', 'walnut kernels']"
114,114,26.287417922076294,-8.304978791668079,"['meat products', 'meat strips', 'beta cyclodextrin', 'dried meat', 'deep processing']"
115,115,24.58929341615444,-6.124532369456214,"['feed additive', 'compound feed', 'pig breeding', 'raw materials', 'well preparation']"
116,116,-11.273418149687469,16.126015963805234,"['tea beverage', 'green tea', 'tea leaves', 'instant tea', 'tea extract']"
117,117,-7.548407872449403,13.954361284668183,"['fruit juice', 'essential oil', 'beta cyclodextrin', 'volatile oil', 'selected drawing']"
118,118,-13.97523484924209,2.9042740813947856,"['essential oil', 'perfume composition', 'microcapsules prepared', 'perfume compositions', 'composition comprising']"
119,119,-1.0809257373276855,-5.784351170372151,"['essential oil', 'plant essential', 'plant essential oil', 'oil parts', 'raw materials']"
120,120,-1.426893392324272,5.719796796145179,"['beverage preparation', 'solid beverage', 'health care', 'beta cyclodextrin', 'solid drink']"
121,121,-1.9573210616859522,10.609981833365397,"['beta cyclodextrin', 'low calorie', 'low sugar', 'low temperature', 'raw materials']"
122,122,-2.6298748914639662,2.925210012929703,"['essential oil', 'bamboo leaf', 'buddhist incense', 'bamboo shoots', 'beta cyclodextrin']"
123,123,-8.197141249747437,-5.91017704079317,"['hair dye', 'hair growth', 'hair dyeing', 'care composition', 'hair care']"
124,124,5.545747957683985,13.933869820054056,"['fruit vegetable', 'raw materials', 'weight parts', 'powder parts', 'parts weight']"
125,125,-14.07890545204041,17.22069558542268,"['instant black', 'instant black tea', 'solid beverage', 'tea preparation', 'tea powder']"
126,126,21.12552162049703,-8.273470128944366,"['animal feed', 'raw materials', 'preparation discloses', 'fatty acid', 'preparation animal']"
127,127,-9.966565375914179,-19.136971856413275,"['forsythiaside preparation medicament', 'composition good', 'black soya bean', 'bacterial infections significant', 'treatment alzheimer disease']"
128,128,-0.5139977396043384,22.479483425972077,"['blueberry juice', 'vacuum concentrated', 'fruit juice', 'purple sweet', 'sweet potato']"
129,129,10.64582281515415,-2.444337993625312,"['formula food', 'powder parts', 'raw materials', 'weight parts', 'dietary fiber']"
